{
  "dataset_reader": {
    "type": "language-reader",
    "token_indexers": {
      "tokens": {
        "type": "characters",
        "character_tokenizer": {
          "byte_encoding": "utf-8",
          "start_tokens": [
            259
          ],
          "end_tokens": [
            260
          ]
        },
        "min_padding_length": 5
      }
    }
  },
  "train_data_path": "data/wiki_training_set.txt",
  "validation_data_path": "data/wiki_validation_set.txt",
  "model": {
    "type": "sentiment-classifier",
    "text_field_embedder": {
      "token_embedders": {
        "tokens": {
          "type": "character_encoding",
          "embedding": {
            "num_embeddings": 262,
            "embedding_dim": 16
          },
          "encoder": {
            "type": "cnn",
            "embedding_dim": 16,
            "num_filters": 100,
            "ngram_filter_sizes": [
              5
            ]
          },
          "dropout": 0.2
        }
      }
    },
    "tweet_encoder": {
      "type": "lstm",
      "bidirectional": true,
      "input_size": 100,
      "hidden_size": 100,
      "num_layers": 1,
      "dropout": 0.2
    },
    "classifier_feedforward": {
      "input_dim": 200,
      "num_layers": 2,
      "hidden_dims": [
        200,
        4
      ],
      "activations": [
        "relu",
        "linear"
      ],
      "dropout": [
        0.2,
        0.0
      ]
    }
  },
  "iterator": {
    "type": "bucket",
    "sorting_keys": [
      [
        "tweet",
        "num_tokens"
      ]
    ],
    "batch_size": 64
  },
  "trainer": {
    "num_epochs": 40,
    "patience": 10,
    "cuda_device": 0,
    "grad_clipping": 5.0,
    "validation_metric": "+accuracy",
    "optimizer": {
      "type": "adagrad"
    }
  }
}
